%YAML 1.1
%TAG !u! tag:unity3d.com,2011:
--- !u!114 &11400000
MonoBehaviour:
  m_ObjectHideFlags: 0
  m_CorrespondingSourceObject: {fileID: 0}
  m_PrefabInternal: {fileID: 0}
  m_GameObject: {fileID: 0}
  m_Enabled: 1
  m_EditorHideFlags: 0
  m_Script: {fileID: 11500000, guid: 81b91988837587f49a8f72fbf00cf778, type: 3}
  m_Name: 83562A41-F545-4314-ACBD-FE1CF7330C29
  m_EditorClassIdentifier: 
  objectName: Music_level
  id: 2177735725
  guid: 83562A41-F545-4314-ACBD-FE1CF7330C29
