%YAML 1.1
%TAG !u! tag:unity3d.com,2011:
--- !u!114 &11400000
MonoBehaviour:
  m_ObjectHideFlags: 0
  m_CorrespondingSourceObject: {fileID: 0}
  m_PrefabInternal: {fileID: 0}
  m_GameObject: {fileID: 0}
  m_Enabled: 1
  m_EditorHideFlags: 0
  m_Script: {fileID: 11500000, guid: 9d2d42e37a0ab894f8fb2285668863f0, type: 3}
  m_Name: 5FD19091-F2DE-4403-B553-511B4991C327
  m_EditorClassIdentifier: 
  objectName: Level_3
  id: 1290008371
  guid: 5FD19091-F2DE-4403-B553-511B4991C327
  WwiseStateGroupReference: {fileID: 0}
