%YAML 1.1
%TAG !u! tag:unity3d.com,2011:
--- !u!114 &11400000
MonoBehaviour:
  m_ObjectHideFlags: 0
  m_CorrespondingSourceObject: {fileID: 0}
  m_PrefabInternal: {fileID: 0}
  m_GameObject: {fileID: 0}
  m_Enabled: 1
  m_EditorHideFlags: 0
  m_Script: {fileID: 11500000, guid: 1d985d1e74781c246b865f4bd5ef2261, type: 3}
  m_Name: AkWwiseProjectData
  m_EditorClassIdentifier: 
  AcousticTextureWwu:
  - PhysicalPath: Virtual Acoustics\Default Work Unit.wwu
    ParentPhysicalPath: 
    guid: 5200ff6a3dba4140bd43e070838bcc48
    m_lastTime: -8586583868102449774
    List: []
  AuxBusWwu:
  - PhysicalPath: Master-Mixer Hierarchy\Default Work Unit.wwu
    ParentPhysicalPath: 
    guid: 4715b6450cdb1c4db4e2f3a0870d78e2
    m_lastTime: -8586583547469900184
    List: []
  BankWwu:
  - PhysicalPath: SoundBanks\Default Work Unit.wwu
    ParentPhysicalPath: 
    guid: 13f31a11cfb88b40a739b4dad89ac8cc
    m_lastTime: -8586582871984411397
    List: []
  - PhysicalPath: SoundBanks\Soundbanks.wwu
    ParentPhysicalPath: 
    guid: db731e6441f0ff478ea3e4ba97752d3a
    m_lastTime: -8586580211322283478
    List:
    - name: ActivationOfPaint
      guid: be2be327c2febb4082677b3dff2d9433
      id: 47363338
      PathAndIcons:
      - ElementName: Soundbanks
        ObjectType: 12
      - ElementName: ActivationOfPaint
        ObjectType: 7
      Path: Soundbanks\ActivationOfPaint
    - name: AllSounds
      guid: e6aae37391c4f141b9d2166978dc1679
      id: 3278463154
      PathAndIcons:
      - ElementName: Soundbanks
        ObjectType: 12
      - ElementName: AllSounds
        ObjectType: 4
      - ElementName: AllSounds
        ObjectType: 7
      Path: Soundbanks\AllSounds\AllSounds
    - name: Animations
      guid: 76ae36f63448fe46abd4412e37a6cbab
      id: 2087567908
      PathAndIcons:
      - ElementName: Soundbanks
        ObjectType: 12
      - ElementName: Animations
        ObjectType: 7
      Path: Soundbanks\Animations
    - name: BossSound
      guid: 7553adc9f349c140915ecdfbc41a7023
      id: 862239991
      PathAndIcons:
      - ElementName: Soundbanks
        ObjectType: 12
      - ElementName: BossSound
        ObjectType: 7
      Path: Soundbanks\BossSound
    - name: ColorPickUps
      guid: 30ac712a18e8ef4fa60148715619742a
      id: 407893481
      PathAndIcons:
      - ElementName: Soundbanks
        ObjectType: 12
      - ElementName: ColorPickUps
        ObjectType: 7
      Path: Soundbanks\ColorPickUps
    - name: EndLevelFeedback
      guid: d06eedae0140c3408a818eb806a6b40f
      id: 2368197235
      PathAndIcons:
      - ElementName: Soundbanks
        ObjectType: 12
      - ElementName: EndLevelFeedback
        ObjectType: 7
      Path: Soundbanks\EndLevelFeedback
    - name: KiddoFootsteps_01
      guid: 9f521ff8d33c9449831db244b20b6d2a
      id: 2488681953
      PathAndIcons:
      - ElementName: Soundbanks
        ObjectType: 12
      - ElementName: KiddoFootsteps_01
        ObjectType: 7
      Path: Soundbanks\KiddoFootsteps_01
    - name: KiddoLanding
      guid: eb0319014ad56c42ac052b4a26394889
      id: 3128530969
      PathAndIcons:
      - ElementName: Soundbanks
        ObjectType: 12
      - ElementName: KiddoLanding
        ObjectType: 7
      Path: Soundbanks\KiddoLanding
    - name: Loops
      guid: f50304047f5f2e4694379817ef018541
      id: 225293542
      PathAndIcons:
      - ElementName: Soundbanks
        ObjectType: 12
      - ElementName: Loops
        ObjectType: 7
      Path: Soundbanks\Loops
    - name: Music
      guid: 4f56f6473d31f1469dcd7b1e822935e6
      id: 3991942870
      PathAndIcons:
      - ElementName: Soundbanks
        ObjectType: 12
      - ElementName: Music
        ObjectType: 7
      Path: Soundbanks\Music
    - name: PickUpLight_01
      guid: 1363e179325de84498898b9aefaa31c6
      id: 801015271
      PathAndIcons:
      - ElementName: Soundbanks
        ObjectType: 12
      - ElementName: PickUpLight_01
        ObjectType: 7
      Path: Soundbanks\PickUpLight_01
    - name: TeleDoor
      guid: e5bb0e788e0d6a4cbe12c50f5acf2760
      id: 2999876861
      PathAndIcons:
      - ElementName: Soundbanks
        ObjectType: 12
      - ElementName: TeleDoor
        ObjectType: 7
      Path: Soundbanks\TeleDoor
    - name: UISound_01
      guid: 6d05ac26f32a96498b8d249db1a6fb33
      id: 1423256018
      PathAndIcons:
      - ElementName: Soundbanks
        ObjectType: 12
      - ElementName: UISound_01
        ObjectType: 7
      Path: Soundbanks\UISound_01
  EventWwu:
  - PhysicalPath: Events\Default Work Unit.wwu
    ParentPhysicalPath: 
    guid: 8687e5c9b1f94145a0e0d42797575fbb
    m_lastTime: -8586580211741893068
    List:
    - name: ActivationOfPaint
      guid: 05f761b0a6db444289e757c4ee7db5fe
      id: 47363338
      PathAndIcons:
      - ElementName: Default Work Unit
        ObjectType: 12
      - ElementName: ActivationOfPaint
        ObjectType: 3
      Path: Default Work Unit\ActivationOfPaint
      maxAttenuation: 0
      maxDuration: 0
      minDuration: 0
    - name: BallFalling
      guid: 8fbc0f520b54da44b4aef906de3763e6
      id: 3893334395
      PathAndIcons:
      - ElementName: Default Work Unit
        ObjectType: 12
      - ElementName: BallFalling
        ObjectType: 3
      Path: Default Work Unit\BallFalling
      maxAttenuation: 0
      maxDuration: 0
      minDuration: 0
    - name: BallNoAir
      guid: 3834407c51aa2845b35dd925c7091a9e
      id: 1006844457
      PathAndIcons:
      - ElementName: Default Work Unit
        ObjectType: 12
      - ElementName: BallNoAir
        ObjectType: 3
      Path: Default Work Unit\BallNoAir
      maxAttenuation: 0
      maxDuration: 0
      minDuration: 0
    - name: BallSpinning
      guid: ecbaacb1bad3d54796be0c97ff30a2d0
      id: 3877046500
      PathAndIcons:
      - ElementName: Default Work Unit
        ObjectType: 12
      - ElementName: BallSpinning
        ObjectType: 3
      Path: Default Work Unit\BallSpinning
      maxAttenuation: 0
      maxDuration: 0
      minDuration: 0
    - name: BossSound
      guid: 2e301f9054ba6c468488e36ad5348c1b
      id: 862239991
      PathAndIcons:
      - ElementName: Default Work Unit
        ObjectType: 12
      - ElementName: BossSound
        ObjectType: 3
      Path: Default Work Unit\BossSound
      maxAttenuation: 0
      maxDuration: 0
      minDuration: 0
    - name: BossSpawning
      guid: 19dc5f7b54413440a8c90c7d1a0a2c3d
      id: 2472930969
      PathAndIcons:
      - ElementName: Default Work Unit
        ObjectType: 12
      - ElementName: BossSpawning
        ObjectType: 3
      Path: Default Work Unit\BossSpawning
      maxAttenuation: 0
      maxDuration: 0
      minDuration: 0
    - name: ColorPickUps
      guid: 9d79bdd39f63e34aaa06690fcb800527
      id: 407893481
      PathAndIcons:
      - ElementName: Default Work Unit
        ObjectType: 12
      - ElementName: ColorPickUps
        ObjectType: 3
      Path: Default Work Unit\ColorPickUps
      maxAttenuation: 0
      maxDuration: 0
      minDuration: 0
    - name: DoorIsLockedUp
      guid: aaf053fc10b31147b3972978ae0b07b3
      id: 847537072
      PathAndIcons:
      - ElementName: Default Work Unit
        ObjectType: 12
      - ElementName: DoorIsLockedUp
        ObjectType: 3
      Path: Default Work Unit\DoorIsLockedUp
      maxAttenuation: 0
      maxDuration: 0
      minDuration: 0
    - name: EndLevelFeedback
      guid: cfe55581e2f4114fb523f15e3c026430
      id: 2368197235
      PathAndIcons:
      - ElementName: Default Work Unit
        ObjectType: 12
      - ElementName: EndLevelFeedback
        ObjectType: 3
      Path: Default Work Unit\EndLevelFeedback
      maxAttenuation: 0
      maxDuration: 0
      minDuration: 0
    - name: GreenColor
      guid: 861b46a337dad04aa354becb56f0a72b
      id: 1273621539
      PathAndIcons:
      - ElementName: Default Work Unit
        ObjectType: 12
      - ElementName: GreenColor
        ObjectType: 3
      Path: Default Work Unit\GreenColor
      maxAttenuation: 0
      maxDuration: 0
      minDuration: 0
    - name: KeyUI
      guid: 7e7cdda4b5c3734096ad78976c698051
      id: 3227864640
      PathAndIcons:
      - ElementName: Default Work Unit
        ObjectType: 12
      - ElementName: KeyUI
        ObjectType: 3
      Path: Default Work Unit\KeyUI
      maxAttenuation: 0
      maxDuration: 0
      minDuration: 0
    - name: KiddoFootsteps
      guid: 679aa5047e35e34998620d9c31ccc229
      id: 2266394309
      PathAndIcons:
      - ElementName: Default Work Unit
        ObjectType: 12
      - ElementName: KiddoFootsteps
        ObjectType: 3
      Path: Default Work Unit\KiddoFootsteps
      maxAttenuation: 0
      maxDuration: 0
      minDuration: 0
    - name: KiddoLanding
      guid: ba25a03ac64f4b4e9549592911dc2395
      id: 3128530969
      PathAndIcons:
      - ElementName: Default Work Unit
        ObjectType: 12
      - ElementName: KiddoLanding
        ObjectType: 3
      Path: Default Work Unit\KiddoLanding
      maxAttenuation: 0
      maxDuration: 0
      minDuration: 0
    - name: MonsterSound
      guid: 87cf80242b4c8d40af534e31700764c0
      id: 512170010
      PathAndIcons:
      - ElementName: Default Work Unit
        ObjectType: 12
      - ElementName: MonsterSound
        ObjectType: 3
      Path: Default Work Unit\MonsterSound
      maxAttenuation: 0
      maxDuration: 0
      minDuration: 0
    - name: PickUpLight
      guid: 1263109211cc8b409190f407ca68a72f
      id: 2491260467
      PathAndIcons:
      - ElementName: Default Work Unit
        ObjectType: 12
      - ElementName: PickUpLight
        ObjectType: 3
      Path: Default Work Unit\PickUpLight
      maxAttenuation: 0
      maxDuration: 0
      minDuration: 0
    - name: Play_Intro
      guid: ffbb53ce53cd2b43a39000a49274d50e
      id: 3103472528
      PathAndIcons:
      - ElementName: Default Work Unit
        ObjectType: 12
      - ElementName: Play_Intro
        ObjectType: 3
      Path: Default Work Unit\Play_Intro
      maxAttenuation: 0
      maxDuration: 0
      minDuration: 0
    - name: Play_Music
      guid: cb9a7d6b5c1368499774bf2e04c7f5df
      id: 2932040671
      PathAndIcons:
      - ElementName: Default Work Unit
        ObjectType: 12
      - ElementName: Play_Music
        ObjectType: 3
      Path: Default Work Unit\Play_Music
      maxAttenuation: 0
      maxDuration: 0
      minDuration: 0
    - name: Play_Outro
      guid: 592768d5feed474991e89f49db9c387d
      id: 431014199
      PathAndIcons:
      - ElementName: Default Work Unit
        ObjectType: 12
      - ElementName: Play_Outro
        ObjectType: 3
      Path: Default Work Unit\Play_Outro
      maxAttenuation: 0
      maxDuration: 0
      minDuration: 0
    - name: Play_Paint
      guid: 262e4f942af5ae488506e565c5611db9
      id: 4010919902
      PathAndIcons:
      - ElementName: Default Work Unit
        ObjectType: 12
      - ElementName: Play_Paint
        ObjectType: 3
      Path: Default Work Unit\Play_Paint
      maxAttenuation: 0
      maxDuration: 0
      minDuration: 0
    - name: Play_Water
      guid: 5ec5d8a3da513048b5fd4e6149f593f1
      id: 441572235
      PathAndIcons:
      - ElementName: Default Work Unit
        ObjectType: 12
      - ElementName: Play_Water
        ObjectType: 3
      Path: Default Work Unit\Play_Water
      maxAttenuation: 0
      maxDuration: 0
      minDuration: 0
    - name: Play_Whale
      guid: b25a4db94e920b4a859f518451af2a9d
      id: 4074383009
      PathAndIcons:
      - ElementName: Default Work Unit
        ObjectType: 12
      - ElementName: Play_Whale
        ObjectType: 3
      Path: Default Work Unit\Play_Whale
      maxAttenuation: 0
      maxDuration: 0
      minDuration: 0
    - name: Statue
      guid: 28a8a8433ccdb043951ff51098196632
      id: 939730917
      PathAndIcons:
      - ElementName: Default Work Unit
        ObjectType: 12
      - ElementName: Statue
        ObjectType: 3
      Path: Default Work Unit\Statue
      maxAttenuation: 0
      maxDuration: 0
      minDuration: 0
    - name: Stop_GreenColor
      guid: 0863da842a3a1c45a1f51d63f3405761
      id: 1859929150
      PathAndIcons:
      - ElementName: Default Work Unit
        ObjectType: 12
      - ElementName: Stop_GreenColor
        ObjectType: 3
      Path: Default Work Unit\Stop_GreenColor
      maxAttenuation: 0
      maxDuration: 0
      minDuration: 0
    - name: Stop_Intro
      guid: 28e2a0abd77aaf48a892aab150fe9851
      id: 1837763790
      PathAndIcons:
      - ElementName: Default Work Unit
        ObjectType: 12
      - ElementName: Stop_Intro
        ObjectType: 3
      Path: Default Work Unit\Stop_Intro
      maxAttenuation: 0
      maxDuration: 0
      minDuration: 0
    - name: Stop_Music
      guid: 777191db82db874f8f80b738f5b7b593
      id: 2837384057
      PathAndIcons:
      - ElementName: Default Work Unit
        ObjectType: 12
      - ElementName: Stop_Music
        ObjectType: 3
      Path: Default Work Unit\Stop_Music
      maxAttenuation: 0
      maxDuration: 0
      minDuration: 0
    - name: Stop_Outro
      guid: bb5983b57293fa4b8b1a70ce31d1ad56
      id: 1027445333
      PathAndIcons:
      - ElementName: Default Work Unit
        ObjectType: 12
      - ElementName: Stop_Outro
        ObjectType: 3
      Path: Default Work Unit\Stop_Outro
      maxAttenuation: 0
      maxDuration: 0
      minDuration: 0
    - name: Stop_Paint
      guid: 3a1f60d6880bfa4f8dcb4c084e0d4564
      id: 2941236940
      PathAndIcons:
      - ElementName: Default Work Unit
        ObjectType: 12
      - ElementName: Stop_Paint
        ObjectType: 3
      Path: Default Work Unit\Stop_Paint
      maxAttenuation: 0
      maxDuration: 0
      minDuration: 0
    - name: Stop_Water
      guid: c7a96b5c2a2b3d4989b3c8fb138da49d
      id: 86541213
      PathAndIcons:
      - ElementName: Default Work Unit
        ObjectType: 12
      - ElementName: Stop_Water
        ObjectType: 3
      Path: Default Work Unit\Stop_Water
      maxAttenuation: 0
      maxDuration: 0
      minDuration: 0
    - name: Stop_Whale
      guid: 111cdc4de3771047b3adc48a87683e03
      id: 333311239
      PathAndIcons:
      - ElementName: Default Work Unit
        ObjectType: 12
      - ElementName: Stop_Whale
        ObjectType: 3
      Path: Default Work Unit\Stop_Whale
      maxAttenuation: 0
      maxDuration: 0
      minDuration: 0
    - name: TeleDoor
      guid: 1d55cf48cde2b64f9bc873771f50be95
      id: 2999876861
      PathAndIcons:
      - ElementName: Default Work Unit
        ObjectType: 12
      - ElementName: TeleDoor
        ObjectType: 3
      Path: Default Work Unit\TeleDoor
      maxAttenuation: 0
      maxDuration: 0
      minDuration: 0
    - name: UI
      guid: 48c6a56be206f24db1f066891d1f59be
      id: 1551306167
      PathAndIcons:
      - ElementName: Default Work Unit
        ObjectType: 12
      - ElementName: UI
        ObjectType: 3
      Path: Default Work Unit\UI
      maxAttenuation: 0
      maxDuration: 0
      minDuration: 0
  RtpcWwu:
  - PhysicalPath: Game Parameters\Default Work Unit.wwu
    ParentPhysicalPath: 
    guid: 073d100cc1804c4fa13ea86b5da717ef
    m_lastTime: -8586583868186626379
    List: []
  - PhysicalPath: Game Parameters\RTCP.wwu
    ParentPhysicalPath: 
    guid: 898054866e5e714a96b5e5ea31ebe762
    m_lastTime: -8586583868186616393
    List:
    - name: Green_RTCP
      guid: 1f95c0b2904d8d4f8184358bedb46901
      id: 1518550890
      PathAndIcons:
      - ElementName: RTCP
        ObjectType: 12
      - ElementName: Green_RTCP
        ObjectType: 13
      Path: RTCP\Green_RTCP
  - PhysicalPath: Game Parameters\Sliders.wwu
    ParentPhysicalPath: 
    guid: c6a5128b9409ec42881cf74eec94fdb0
    m_lastTime: -8586582872005574994
    List:
    - name: Master_Volume
      guid: 01cc9dd304f95648a442327bd2a29995
      id: 4179668880
      PathAndIcons:
      - ElementName: Sliders
        ObjectType: 12
      - ElementName: Master_Volume
        ObjectType: 13
      Path: Sliders\Master_Volume
    - name: Music_Volume
      guid: 34681dbb3018f245908a6ae41eaf9699
      id: 1006694123
      PathAndIcons:
      - ElementName: Sliders
        ObjectType: 12
      - ElementName: Music_Volume
        ObjectType: 13
      Path: Sliders\Music_Volume
    - name: Sound_Volume
      guid: c134927168c33546be930cf4dbc10e40
      id: 495870151
      PathAndIcons:
      - ElementName: Sliders
        ObjectType: 12
      - ElementName: Sound_Volume
        ObjectType: 13
      Path: Sliders\Sound_Volume
  StateWwu:
  - PhysicalPath: States\Default Work Unit.wwu
    ParentPhysicalPath: 
    guid: c4cc2f91e666ed4785eb1b803de21868
    m_lastTime: -8586580211321714961
    List:
    - name: Music_Key
      guid: c9e4e2d89b1a1c46a54ace86bf72eeb7
      id: 2078097994
      PathAndIcons:
      - ElementName: Default Work Unit
        ObjectType: 12
      - ElementName: Music_Key
        ObjectType: 9
      Path: Default Work Unit\Music_Key
      values:
      - name: NoKey
        guid: 9f264538265c8749889e79529235aabe
        id: 470023953
        PathAndIcons:
        - ElementName: NoKey
          ObjectType: 8
      - name: None
        guid: 468271d99ce1454d9ba8fe077d901ad9
        id: 748895195
        PathAndIcons:
        - ElementName: None
          ObjectType: 8
      - name: OneKey
        guid: 20e16d11129cc74ba643a6350d824ae5
        id: 1649261132
        PathAndIcons:
        - ElementName: OneKey
          ObjectType: 8
      - name: ThreeKeys
        guid: deddf48949d4ae44a59cca08e271d0bc
        id: 3314977319
        PathAndIcons:
        - ElementName: ThreeKeys
          ObjectType: 8
      - name: TwoKeys
        guid: cec624e0c3f71243bc1e6cc8146c4c20
        id: 1169404525
        PathAndIcons:
        - ElementName: TwoKeys
          ObjectType: 8
    - name: Music_level
      guid: 412a568345f51443acbdfe1cf7330c29
      id: 2177735725
      PathAndIcons:
      - ElementName: Default Work Unit
        ObjectType: 12
      - ElementName: Music_level
        ObjectType: 9
      Path: Default Work Unit\Music_level
      values:
      - name: Level_1
        guid: 3701f0682bc3ad4e885168cce4f721bc
        id: 1290008369
        PathAndIcons:
        - ElementName: Level_1
          ObjectType: 8
      - name: Level_2
        guid: a85d2dd06e4e654aba8ab6d8f7683ae7
        id: 1290008370
        PathAndIcons:
        - ElementName: Level_2
          ObjectType: 8
      - name: Level_3
        guid: 9190d15fdef20344b553511b4991c327
        id: 1290008371
        PathAndIcons:
        - ElementName: Level_3
          ObjectType: 8
      - name: Level_4
        guid: 9e08f9503f998e498d41cfc6b8fb583b
        id: 1290008372
        PathAndIcons:
        - ElementName: Level_4
          ObjectType: 8
      - name: Menu_Hub
        guid: f80931c8981ce84e93fbf1bbd7d6156e
        id: 3087754956
        PathAndIcons:
        - ElementName: Menu_Hub
          ObjectType: 8
      - name: None
        guid: 9cc84777a0285f4aabb24c471807f1dd
        id: 748895195
        PathAndIcons:
        - ElementName: None
          ObjectType: 8
    - name: Secret
      guid: 4f6e876aaf652c44abd9f2f382a5973f
      id: 3354192397
      PathAndIcons:
      - ElementName: Default Work Unit
        ObjectType: 12
      - ElementName: Secret
        ObjectType: 9
      Path: Default Work Unit\Secret
      values:
      - name: None
        guid: f4b51e4bc302a546b3d08f1e25c65d85
        id: 748895195
        PathAndIcons:
        - ElementName: None
          ObjectType: 8
      - name: SecretFour
        guid: 0a301b12cdab984db2d4f4163cbb486c
        id: 1366044881
        PathAndIcons:
        - ElementName: SecretFour
          ObjectType: 8
      - name: SecretOne
        guid: 045846bfc05eb64cba4f123ae55ff88f
        id: 1792149047
        PathAndIcons:
        - ElementName: SecretOne
          ObjectType: 8
      - name: SecretThree
        guid: ecb6d942d04de04daf145aa505b37199
        id: 3296666775
        PathAndIcons:
        - ElementName: SecretThree
          ObjectType: 8
      - name: SecretTwo
        guid: bd3413cf8c7f6d4bb0815f5946c9daa4
        id: 2208191013
        PathAndIcons:
        - ElementName: SecretTwo
          ObjectType: 8
    - name: StateOfGame
      guid: 195d5dd86b9a5a48ae29f9e583a85e19
      id: 2726287257
      PathAndIcons:
      - ElementName: Default Work Unit
        ObjectType: 12
      - ElementName: StateOfGame
        ObjectType: 9
      Path: Default Work Unit\StateOfGame
      values:
      - name: InGame
        guid: a81e635247e449408ecfa4a923b1b4d1
        id: 984691642
        PathAndIcons:
        - ElementName: InGame
          ObjectType: 8
      - name: Menu
        guid: 201bf08e922b4c4687b2a0b59ee7d1b0
        id: 2607556080
        PathAndIcons:
        - ElementName: Menu
          ObjectType: 8
      - name: None
        guid: fb998ae7e250ce409037e0d0737cd763
        id: 748895195
        PathAndIcons:
        - ElementName: None
          ObjectType: 8
  SwitchWwu:
  - PhysicalPath: Switches\Default Work Unit.wwu
    ParentPhysicalPath: 
    guid: ddcd2d20045a9b449534ffb078ef137e
    m_lastTime: -8586582871984381477
    List:
    - name: Footsteptype
      guid: 4862ac332c7faf438b9babac364822db
      id: 1458816175
      PathAndIcons:
      - ElementName: Default Work Unit
        ObjectType: 12
      - ElementName: Footsteptype
        ObjectType: 11
      Path: Default Work Unit\Footsteptype
      values:
      - name: Blue
        guid: 3891df1d8d0e704294b47a8cd55f44fa
        id: 1325827433
        PathAndIcons:
        - ElementName: Blue
          ObjectType: 10
      - name: Normal
        guid: 0c09c9d3cdc5184f9ccffefb395e8f42
        id: 1160234136
        PathAndIcons:
        - ElementName: Normal
          ObjectType: 10
    - name: TeleDoor
      guid: 399b6f0e9816d549aba3e0c5cce790f2
      id: 2999876861
      PathAndIcons:
      - ElementName: Default Work Unit
        ObjectType: 12
      - ElementName: TeleDoor
        ObjectType: 11
      Path: Default Work Unit\TeleDoor
      values:
      - name: TeleDoorAppear
        guid: e08b9b3239b2454fb9afbd12f3f31f1b
        id: 2940176574
        PathAndIcons:
        - ElementName: TeleDoorAppear
          ObjectType: 10
      - name: TeleDoorCloses
        guid: 11bf5aa1b03cfe47b49791c86fa430f4
        id: 144862798
        PathAndIcons:
        - ElementName: TeleDoorCloses
          ObjectType: 10
      - name: TeleDoorOpen
        guid: b3abd980299d404aac092f51533b2447
        id: 1643113129
        PathAndIcons:
        - ElementName: TeleDoorOpen
          ObjectType: 10
    - name: UI
      guid: 7fddd04efd32b44a995ff4e7dce38f4a
      id: 1551306167
      PathAndIcons:
      - ElementName: Default Work Unit
        ObjectType: 12
      - ElementName: UI
        ObjectType: 11
      Path: Default Work Unit\UI
      values:
      - name: IUStart
        guid: e2f49842903d17469bb528d9a1fc88fa
        id: 3637873365
        PathAndIcons:
        - ElementName: IUStart
          ObjectType: 10
      - name: UISoundClick
        guid: 98e729d18f5bfc4b88aa4751ed53128e
        id: 3194545524
        PathAndIcons:
        - ElementName: UISoundClick
          ObjectType: 10
      - name: UISoundStartSelectLevel
        guid: 96ebae3e5e35c5498f0852ddf7c69035
        id: 3944003874
        PathAndIcons:
        - ElementName: UISoundStartSelectLevel
          ObjectType: 10
  TriggerWwu:
  - PhysicalPath: Triggers\Default Work Unit.wwu
    ParentPhysicalPath: 
    guid: 7b65b54f62bd3b438f0e62768e92eaf0
    m_lastTime: -8586583868102459786
    List: []
  ExpandedItems:
  - /Kiddosfear_WwiseProject
  - /Kiddosfear_WwiseProject/Events
  - /Kiddosfear_WwiseProject/Events/Default Work Unit
  - /Kiddosfear_WwiseProject/SoundBanks
  - /Kiddosfear_WwiseProject/SoundBanks/Soundbanks
  - /Kiddosfear_WwiseProject/States
  - /Kiddosfear_WwiseProject/States/Default Work Unit
  - /Kiddosfear_WwiseProject/States/Default Work Unit/Music_level
  - /Kiddosfear_WwiseProject/States/Default Work Unit/StateOfGame
  - /Kiddosfear_WwiseProject/Switches
  - /Kiddosfear_WwiseProject/Switches/Default Work Unit
  - /Kiddosfear_WwiseProject/Switches/Default Work Unit/TeleDoor
  - /Kiddosfear_WwiseProject/Switches/Default Work Unit/UI
  autoPopulateEnabled: 1
  CurrentPluginConfig: 
