%YAML 1.1
%TAG !u! tag:unity3d.com,2011:
--- !u!114 &11400000
MonoBehaviour:
  m_ObjectHideFlags: 0
  m_CorrespondingSourceObject: {fileID: 0}
  m_PrefabInternal: {fileID: 0}
  m_GameObject: {fileID: 0}
  m_Enabled: 1
  m_EditorHideFlags: 0
  m_Script: {fileID: 11500000, guid: a27bebc098d607f449572614775778b6, type: 3}
  m_Name: DB917177-DB82-4F87-8F80-B738F5B7B593
  m_EditorClassIdentifier: 
  objectName: Stop_Music
  id: 2837384057
  guid: DB917177-DB82-4F87-8F80-B738F5B7B593
